{
    "project_name": "My Python Package",
    "module_name": "my_module_name",
    "package_name": "my-pypi-package-name",
    "author_name": "My Name",
    "author_email": "my_email@example.com",
    "gitlab_username": "my_gitlab_username",
    "gitlab_repo": "my-gitlab-repo (usually the same as the package name)",
    "project_version": "0.0.1",
    "project_short_description": "My short project description.",
    "image": "python:3.10",
    "python_version": "3.10",
    "python_release": "3.10.8",
    "default_tox_environment": "py310"
}